\relax 
\@writefile{toc}{\contentsline {section}{\numberline {1}Introducci\IeC {\'o}}{2}}
\@writefile{toc}{\contentsline {section}{\numberline {2}An\IeC {\`a}lisi}{2}}
\@writefile{toc}{\contentsline {section}{\numberline {3}Desenvolupament}{3}}
\@writefile{toc}{\contentsline {subsection}{\numberline {3.1}Controlador}{3}}
\@writefile{toc}{\contentsline {subsection}{\numberline {3.2}Reproductor}{3}}
\@writefile{toc}{\contentsline {subsection}{\numberline {3.3}FitxerReproduible}{3}}
\@writefile{toc}{\contentsline {subsection}{\numberline {3.4}Audio}{4}}
\@writefile{toc}{\contentsline {subsection}{\numberline {3.5}Video}{4}}
\@writefile{toc}{\contentsline {subsection}{\numberline {3.6}BibliotecaFitxersMultimedia}{4}}
\@writefile{toc}{\contentsline {subsection}{\numberline {3.7}Dades}{4}}
\@writefile{toc}{\contentsline {section}{\numberline {4}Preguntes espec\IeC {\'\i }fiques de l'entrega}{5}}
\@writefile{toc}{\contentsline {subsection}{\numberline {4.1}Explicaci\IeC {\'o} de les classes implementades}{5}}
\@writefile{toc}{\contentsline {subsection}{\numberline {4.2}Objectes creats en executar el main}{5}}
\@writefile{toc}{\contentsline {subsection}{\numberline {4.3}M\IeC {\`e}tode equals()}{5}}
\@writefile{toc}{\contentsline {subsection}{\numberline {4.4}\IeC {\'U}s d'AplicacioException}{6}}
\@writefile{toc}{\contentsline {subsection}{\numberline {4.5}Sobrec\IeC {\`a}rrega de m\IeC {\`e}todes de Controlador}{6}}
\@writefile{toc}{\contentsline {subsection}{\numberline {4.6}Diagrama de classes}{7}}
\@writefile{toc}{\contentsline {subsection}{\numberline {4.7}Diagrama de flux de addVideo()}{8}}
\@writefile{toc}{\contentsline {subsection}{\numberline {4.8}Canvis per cridar a reproduir des de FitxerReproduible}{9}}
\@writefile{toc}{\contentsline {subsection}{\numberline {4.9}Proves realitzades}{9}}
\@writefile{toc}{\contentsline {subsection}{\numberline {4.10}Observacions Generals}{9}}
\@writefile{toc}{\contentsline {section}{\numberline {5}Resultats}{10}}
